<?xml version="1.0" encoding="UTF-8"?>
<svg width="27px" height="27px" viewBox="0 0 27 27" version="1.1" xmlns="http://www.w3.org/2000/svg" xmlns:xlink="http://www.w3.org/1999/xlink">
    <!-- Generator: Sketch 52.5 (67469) - http://www.bohemiancoding.com/sketch -->
    <title>Group 31</title>
    <desc>Created with Sketch.</desc>
    <g id="Page-1" stroke="none" stroke-width="1" fill="none" fill-rule="evenodd">
        <g id="News_Main_v2" transform="translate(-201.000000, -928.000000)">
            <g id="Group-23" transform="translate(200.000000, 928.000000)">
                <g id="Group-27" transform="translate(1.000000, 0.000000)">
                    <g id="Group-28">
                        <g id="Group-30">
                            <g id="Group-31">
                                <circle id="Oval-Copy-23" fill="#CDB87D" cx="13.5" cy="13.5" r="13.5"></circle>
                                <path d="M14.8256774,12.5323226 L20.358,12.5323226 L20.358,7 L14.8256774,7 L14.8256774,12.5323226 Z M7.00218006,12.5323226 L12.5355834,12.5323226 L12.5355834,7 L7.00218006,7 L7.00218006,12.5323226 Z M14.8256774,20.385 L20.358,20.385 L20.358,14.8526774 L14.8256774,14.8526774 L14.8256774,20.385 Z M7.00218006,20.385 L12.5355834,20.385 L12.5355834,14.8526774 L7.00218006,14.8526774 L7.00218006,20.385 Z" id="Fill-1" fill="#FFFFFF"></path>
                            </g>
                        </g>
                    </g>
                </g>
            </g>
        </g>
    </g>
</svg>