<?xml version="1.0" encoding="UTF-8"?>
<svg width="6px" height="5px" viewBox="0 0 16 15" version="1.1" xmlns="http://www.w3.org/2000/svg" xmlns:xlink="http://www.w3.org/1999/xlink">
    <g id="Page-1" stroke="none" stroke-width="1" fill="currentColor" fill-rule="evenodd">
        <g id="Mobile-2" transform="translate(-22.000000, -413.000000)" fill="currentColor">
            <g id="Group-3" transform="translate(22.000000, 413.000000)">
                <path d="M8.4904982,0.350295648 L10.1408673,5.34276489 L15.4848609,5.34276489 C15.9824348,5.34276489 16.1905784,5.96954605 15.7866075,6.25752658 L11.4636258,9.34303229 L13.1152265,14.3355015 C13.2691788,14.8013524 12.726035,15.1897631 12.322064,14.9005726 L8.00031396,11.8162769 L3.67733227,14.9005726 C3.27459295,15.1897631 2.73021748,14.8013524 2.88540144,14.3355015 L4.53577051,9.34303229 L0.212788827,6.25752658 C-0.189950492,5.96954605 0.0169614516,5.34276489 0.515767031,5.34276489 L5.85852901,5.34276489 L7.51012971,0.350295648 C7.66408205,-0.116765216 8.33531425,-0.116765216 8.4904982,0.350295648" id="Fill-1"></path>
            </g>
        </g>
    </g>
</svg>
