{
    "key": "group_555a07c6a109d",
    "title": "Advanced",
    "fields": [
        {
            "key": "field_555a07e008131",
            "label": "Innerpage Master",
            "name": "innerpage_master",
            "type": "flexible_content",
            "instructions": "",
            "required": 0,
            "conditional_logic": 0,
            "wrapper": {
                "width": "",
                "class": "",
                "id": ""
            },
            "layouts": {
                "555a07e6546ad": {
                    "key": "555a07e6546ad",
                    "name": "full-width_column",
                    "label": "Content Block",
                    "display": "block",
                    "sub_fields": [
                        {
                            "key": "field_5ae38bc3c211c",
                            "label": "Layout Option",
                            "name": "",
                            "type": "tab",
                            "instructions": "",
                            "required": 0,
                            "conditional_logic": 0,
                            "wrapper": {
                                "width": "",
                                "class": "",
                                "id": ""
                            },
                            "placement": "top",
                            "endpoint": 0
                        },
                        {
                            "key": "field_5aea0695ea177",
                            "label": "Background",
                            "name": "background",
                            "type": "select",
                            "instructions": "Choose Background Color",
                            "required": 0,
                            "conditional_logic": 0,
                            "wrapper": {
                                "width": "",
                                "class": "",
                                "id": ""
                            },
                            "choices": {
                                "white": "White",
                                "light-gray": "Light Gray",
                                "dark-blue": "Dark Blue",
                                "light-blue": "Light Blue",
                                "green": "Green",
                                "yellow": "Yellow"
                            },
                            "default_value": [],
                            "allow_null": 0,
                            "multiple": 0,
                            "ui": 0,
                            "ajax": 0,
                            "return_format": "value",
                            "placeholder": ""
                        },
                        {
                            "key": "field_5aea05c5377e3",
                            "label": "Layout Block",
                            "name": "",
                            "type": "tab",
                            "instructions": "",
                            "required": 0,
                            "conditional_logic": 0,
                            "wrapper": {
                                "width": "",
                                "class": "",
                                "id": ""
                            },
                            "placement": "top",
                            "endpoint": 0
                        },
                        {
                            "key": "field_555a080a08132",
                            "label": "Content",
                            "name": "content",
                            "type": "wysiwyg",
                            "instructions": "",
                            "required": 0,
                            "conditional_logic": 0,
                            "wrapper": {
                                "width": "",
                                "class": "",
                                "id": ""
                            },
                            "default_value": "",
                            "tabs": "all",
                            "toolbar": "full",
                            "media_upload": 1,
                            "delay": 0
                        },
                        {
                            "key": "field_5b031e4ca9c2a",
                            "label": "Add a Carousel",
                            "name": "add_a_carousel",
                            "type": "true_false",
                            "instructions": "",
                            "required": 0,
                            "conditional_logic": 0,
                            "wrapper": {
                                "width": "",
                                "class": "",
                                "id": ""
                            },
                            "message": "",
                            "default_value": 0,
                            "ui": 0,
                            "ui_on_text": "",
                            "ui_off_text": ""
                        },
                        {
                            "key": "field_5b031e788718b",
                            "label": "Carousel Slides",
                            "name": "carousel_slides",
                            "type": "repeater",
                            "instructions": "",
                            "required": 0,
                            "conditional_logic": [
                                [
                                    {
                                        "field": "field_5b031e4ca9c2a",
                                        "operator": "==",
                                        "value": "1"
                                    }
                                ]
                            ],
                            "wrapper": {
                                "width": "",
                                "class": "",
                                "id": ""
                            },
                            "collapsed": "",
                            "min": 0,
                            "max": 0,
                            "layout": "table",
                            "button_label": "",
                            "sub_fields": [
                                {
                                    "key": "field_5b03200e85130",
                                    "label": "Carousel Image",
                                    "name": "carousel_image",
                                    "type": "image",
                                    "instructions": "",
                                    "required": 0,
                                    "conditional_logic": 0,
                                    "wrapper": {
                                        "width": "",
                                        "class": "",
                                        "id": ""
                                    },
                                    "return_format": "array",
                                    "preview_size": "thumbnail",
                                    "library": "all",
                                    "min_width": "",
                                    "min_height": "",
                                    "min_size": "",
                                    "max_width": "",
                                    "max_height": "",
                                    "max_size": "",
                                    "mime_types": ""
                                }
                            ]
                        }
                    ],
                    "min": "",
                    "max": ""
                },
                "5943ed52d6772": {
                    "key": "5943ed52d6772",
                    "name": "columns",
                    "label": "Columns",
                    "display": "block",
                    "sub_fields": [
                        {
                            "key": "field_5ae38c8eab8ab",
                            "label": "Layout Options",
                            "name": "",
                            "type": "tab",
                            "instructions": "",
                            "required": 0,
                            "conditional_logic": 0,
                            "wrapper": {
                                "width": "",
                                "class": "",
                                "id": ""
                            },
                            "placement": "top",
                            "endpoint": 0
                        },
                        {
                            "key": "field_59b199bda6557",
                            "label": "Background",
                            "name": "background",
                            "type": "select",
                            "instructions": "Choose Background Color",
                            "required": 0,
                            "conditional_logic": 0,
                            "wrapper": {
                                "width": "",
                                "class": "",
                                "id": ""
                            },
                            "choices": {
                                "white": "White",
                                "light-gray": "Light Gray",
                                "dark-blue": "Dark Blue",
                                "light-blue": "Light Blue",
                                "green": "Green",
                                "yellow": "Yellow"
                            },
                            "default_value": [],
                            "allow_null": 0,
                            "multiple": 0,
                            "ui": 0,
                            "ajax": 0,
                            "return_format": "value",
                            "placeholder": ""
                        },
                        {
                            "key": "field_5aea079b82d94",
                            "label": "Layout Block",
                            "name": "",
                            "type": "tab",
                            "instructions": "",
                            "required": 0,
                            "conditional_logic": 0,
                            "wrapper": {
                                "width": "",
                                "class": "",
                                "id": ""
                            },
                            "placement": "top",
                            "endpoint": 0
                        },
                        {
                            "key": "field_59b199caa6558",
                            "label": "Section Heading",
                            "name": "section_heading",
                            "type": "text",
                            "instructions": "",
                            "required": 0,
                            "conditional_logic": 0,
                            "wrapper": {
                                "width": "",
                                "class": "",
                                "id": ""
                            },
                            "default_value": "",
                            "placeholder": "",
                            "prepend": "",
                            "append": "",
                            "maxlength": ""
                        },
                        {
                            "key": "field_5943ef58d679c",
                            "label": "Column Row",
                            "name": "column_row",
                            "type": "repeater",
                            "instructions": "",
                            "required": 0,
                            "conditional_logic": 0,
                            "wrapper": {
                                "width": "",
                                "class": "",
                                "id": ""
                            },
                            "collapsed": "",
                            "min": 1,
                            "max": 0,
                            "layout": "row",
                            "button_label": "",
                            "sub_fields": [
                                {
                                    "key": "field_5943f020d679d",
                                    "label": "Number of Columns",
                                    "name": "number_of_columns",
                                    "type": "radio",
                                    "instructions": "",
                                    "required": 1,
                                    "conditional_logic": 0,
                                    "wrapper": {
                                        "width": "",
                                        "class": "",
                                        "id": ""
                                    },
                                    "choices": {
                                        "2": "Two",
                                        "3": "Three",
                                        "4": "Four",
                                        "5": "Five",
                                        "6": "Six"
                                    },
                                    "allow_null": 0,
                                    "other_choice": 0,
                                    "save_other_choice": 0,
                                    "default_value": 2,
                                    "layout": "horizontal",
                                    "return_format": "value"
                                },
                                {
                                    "key": "field_5943f042d679e",
                                    "label": "One",
                                    "name": "",
                                    "type": "tab",
                                    "instructions": "",
                                    "required": 0,
                                    "conditional_logic": [
                                        [
                                            {
                                                "field": "field_5943f020d679d",
                                                "operator": "==",
                                                "value": "2"
                                            }
                                        ],
                                        [
                                            {
                                                "field": "field_5943f020d679d",
                                                "operator": "==",
                                                "value": "3"
                                            }
                                        ],
                                        [
                                            {
                                                "field": "field_5943f020d679d",
                                                "operator": "==",
                                                "value": "4"
                                            }
                                        ],
                                        [
                                            {
                                                "field": "field_5943f020d679d",
                                                "operator": "==",
                                                "value": "5"
                                            }
                                        ],
                                        [
                                            {
                                                "field": "field_5943f020d679d",
                                                "operator": "==",
                                                "value": "6"
                                            }
                                        ]
                                    ],
                                    "wrapper": {
                                        "width": "",
                                        "class": "",
                                        "id": ""
                                    },
                                    "placement": "top",
                                    "endpoint": 0
                                },
                                {
                                    "key": "field_5943f084d67a4",
                                    "label": "Column One",
                                    "name": "column_1",
                                    "type": "wysiwyg",
                                    "instructions": "",
                                    "required": 0,
                                    "conditional_logic": [
                                        [
                                            {
                                                "field": "field_5943f020d679d",
                                                "operator": "==",
                                                "value": "2"
                                            }
                                        ],
                                        [
                                            {
                                                "field": "field_5943f020d679d",
                                                "operator": "==",
                                                "value": "3"
                                            }
                                        ],
                                        [
                                            {
                                                "field": "field_5943f020d679d",
                                                "operator": "==",
                                                "value": "4"
                                            }
                                        ],
                                        [
                                            {
                                                "field": "field_5943f020d679d",
                                                "operator": "==",
                                                "value": "5"
                                            }
                                        ],
                                        [
                                            {
                                                "field": "field_5943f020d679d",
                                                "operator": "==",
                                                "value": "6"
                                            }
                                        ]
                                    ],
                                    "wrapper": {
                                        "width": "",
                                        "class": "",
                                        "id": ""
                                    },
                                    "default_value": "",
                                    "tabs": "all",
                                    "toolbar": "full",
                                    "media_upload": 1,
                                    "delay": 1
                                },
                                {
                                    "key": "field_5943f06bd67a2",
                                    "label": "Two",
                                    "name": "",
                                    "type": "tab",
                                    "instructions": "",
                                    "required": 0,
                                    "conditional_logic": [
                                        [
                                            {
                                                "field": "field_5943f020d679d",
                                                "operator": "==",
                                                "value": "2"
                                            }
                                        ],
                                        [
                                            {
                                                "field": "field_5943f020d679d",
                                                "operator": "==",
                                                "value": "3"
                                            }
                                        ],
                                        [
                                            {
                                                "field": "field_5943f020d679d",
                                                "operator": "==",
                                                "value": "4"
                                            }
                                        ],
                                        [
                                            {
                                                "field": "field_5943f020d679d",
                                                "operator": "==",
                                                "value": "5"
                                            }
                                        ],
                                        [
                                            {
                                                "field": "field_5943f020d679d",
                                                "operator": "==",
                                                "value": "6"
                                            }
                                        ]
                                    ],
                                    "wrapper": {
                                        "width": "",
                                        "class": "",
                                        "id": ""
                                    },
                                    "placement": "top",
                                    "endpoint": 0
                                },
                                {
                                    "key": "field_5943f093d67a5",
                                    "label": "Column Two",
                                    "name": "column_2",
                                    "type": "wysiwyg",
                                    "instructions": "",
                                    "required": 0,
                                    "conditional_logic": [
                                        [
                                            {
                                                "field": "field_5943f020d679d",
                                                "operator": "==",
                                                "value": "2"
                                            }
                                        ],
                                        [
                                            {
                                                "field": "field_5943f020d679d",
                                                "operator": "==",
                                                "value": "3"
                                            }
                                        ],
                                        [
                                            {
                                                "field": "field_5943f020d679d",
                                                "operator": "==",
                                                "value": "4"
                                            }
                                        ],
                                        [
                                            {
                                                "field": "field_5943f020d679d",
                                                "operator": "==",
                                                "value": "5"
                                            }
                                        ],
                                        [
                                            {
                                                "field": "field_5943f020d679d",
                                                "operator": "==",
                                                "value": "6"
                                            }
                                        ]
                                    ],
                                    "wrapper": {
                                        "width": "",
                                        "class": "",
                                        "id": ""
                                    },
                                    "default_value": "",
                                    "tabs": "all",
                                    "toolbar": "full",
                                    "media_upload": 1,
                                    "delay": 1
                                },
                                {
                                    "key": "field_5943f06bd67a1",
                                    "label": "Three",
                                    "name": "",
                                    "type": "tab",
                                    "instructions": "",
                                    "required": 0,
                                    "conditional_logic": [
                                        [
                                            {
                                                "field": "field_5943f020d679d",
                                                "operator": "==",
                                                "value": "3"
                                            }
                                        ],
                                        [
                                            {
                                                "field": "field_5943f020d679d",
                                                "operator": "==",
                                                "value": "4"
                                            }
                                        ],
                                        [
                                            {
                                                "field": "field_5943f020d679d",
                                                "operator": "==",
                                                "value": "5"
                                            }
                                        ],
                                        [
                                            {
                                                "field": "field_5943f020d679d",
                                                "operator": "==",
                                                "value": "6"
                                            }
                                        ]
                                    ],
                                    "wrapper": {
                                        "width": "",
                                        "class": "",
                                        "id": ""
                                    },
                                    "placement": "top",
                                    "endpoint": 0
                                },
                                {
                                    "key": "field_5943f0a0d67a6",
                                    "label": "Column Three",
                                    "name": "column_3",
                                    "type": "wysiwyg",
                                    "instructions": "",
                                    "required": 0,
                                    "conditional_logic": [
                                        [
                                            {
                                                "field": "field_5943f020d679d",
                                                "operator": "==",
                                                "value": "3"
                                            }
                                        ],
                                        [
                                            {
                                                "field": "field_5943f020d679d",
                                                "operator": "==",
                                                "value": "4"
                                            }
                                        ],
                                        [
                                            {
                                                "field": "field_5943f020d679d",
                                                "operator": "==",
                                                "value": "5"
                                            }
                                        ],
                                        [
                                            {
                                                "field": "field_5943f020d679d",
                                                "operator": "==",
                                                "value": "6"
                                            }
                                        ]
                                    ],
                                    "wrapper": {
                                        "width": "",
                                        "class": "",
                                        "id": ""
                                    },
                                    "default_value": "",
                                    "tabs": "all",
                                    "toolbar": "full",
                                    "media_upload": 1,
                                    "delay": 1
                                },
                                {
                                    "key": "field_5943f06ad67a0",
                                    "label": "Four",
                                    "name": "",
                                    "type": "tab",
                                    "instructions": "",
                                    "required": 0,
                                    "conditional_logic": [
                                        [
                                            {
                                                "field": "field_5943f020d679d",
                                                "operator": "==",
                                                "value": "4"
                                            }
                                        ],
                                        [
                                            {
                                                "field": "field_5943f020d679d",
                                                "operator": "==",
                                                "value": "5"
                                            }
                                        ],
                                        [
                                            {
                                                "field": "field_5943f020d679d",
                                                "operator": "==",
                                                "value": "6"
                                            }
                                        ]
                                    ],
                                    "wrapper": {
                                        "width": "",
                                        "class": "",
                                        "id": ""
                                    },
                                    "placement": "top",
                                    "endpoint": 0
                                },
                                {
                                    "key": "field_5943f0afd67a7",
                                    "label": "Column Four",
                                    "name": "column_4",
                                    "type": "wysiwyg",
                                    "instructions": "",
                                    "required": 0,
                                    "conditional_logic": [
                                        [
                                            {
                                                "field": "field_5943f020d679d",
                                                "operator": "==",
                                                "value": "4"
                                            }
                                        ],
                                        [
                                            {
                                                "field": "field_5943f020d679d",
                                                "operator": "==",
                                                "value": "5"
                                            }
                                        ],
                                        [
                                            {
                                                "field": "field_5943f020d679d",
                                                "operator": "==",
                                                "value": "6"
                                            }
                                        ]
                                    ],
                                    "wrapper": {
                                        "width": "",
                                        "class": "",
                                        "id": ""
                                    },
                                    "default_value": "",
                                    "tabs": "all",
                                    "toolbar": "full",
                                    "media_upload": 1,
                                    "delay": 1
                                },
                                {
                                    "key": "field_5943f069d679f",
                                    "label": "Five",
                                    "name": "",
                                    "type": "tab",
                                    "instructions": "",
                                    "required": 0,
                                    "conditional_logic": [
                                        [
                                            {
                                                "field": "field_5943f020d679d",
                                                "operator": "==",
                                                "value": "5"
                                            }
                                        ],
                                        [
                                            {
                                                "field": "field_5943f020d679d",
                                                "operator": "==",
                                                "value": "6"
                                            }
                                        ]
                                    ],
                                    "wrapper": {
                                        "width": "",
                                        "class": "",
                                        "id": ""
                                    },
                                    "placement": "top",
                                    "endpoint": 0
                                },
                                {
                                    "key": "field_5943f0bbd67a8",
                                    "label": "Column Five",
                                    "name": "column_5",
                                    "type": "wysiwyg",
                                    "instructions": "",
                                    "required": 0,
                                    "conditional_logic": [
                                        [
                                            {
                                                "field": "field_5943f020d679d",
                                                "operator": "==",
                                                "value": "5"
                                            }
                                        ],
                                        [
                                            {
                                                "field": "field_5943f020d679d",
                                                "operator": "==",
                                                "value": "6"
                                            }
                                        ]
                                    ],
                                    "wrapper": {
                                        "width": "",
                                        "class": "",
                                        "id": ""
                                    },
                                    "default_value": "",
                                    "tabs": "all",
                                    "toolbar": "full",
                                    "media_upload": 1,
                                    "delay": 1
                                },
                                {
                                    "key": "field_5943f07fd67a3",
                                    "label": "Six",
                                    "name": "",
                                    "type": "tab",
                                    "instructions": "",
                                    "required": 0,
                                    "conditional_logic": [
                                        [
                                            {
                                                "field": "field_5943f020d679d",
                                                "operator": "==",
                                                "value": "6"
                                            }
                                        ]
                                    ],
                                    "wrapper": {
                                        "width": "",
                                        "class": "",
                                        "id": ""
                                    },
                                    "placement": "top",
                                    "endpoint": 0
                                },
                                {
                                    "key": "field_5943f0c7d67a9",
                                    "label": "Column Six",
                                    "name": "column_6",
                                    "type": "wysiwyg",
                                    "instructions": "",
                                    "required": 0,
                                    "conditional_logic": [
                                        [
                                            {
                                                "field": "field_5943f020d679d",
                                                "operator": "==",
                                                "value": "6"
                                            }
                                        ]
                                    ],
                                    "wrapper": {
                                        "width": "",
                                        "class": "",
                                        "id": ""
                                    },
                                    "default_value": "",
                                    "tabs": "all",
                                    "toolbar": "full",
                                    "media_upload": 1,
                                    "delay": 1
                                }
                            ]
                        }
                    ],
                    "min": "",
                    "max": ""
                },
                "555a098908146": {
                    "key": "555a098908146",
                    "name": "parallax_background",
                    "label": "Parallax Background",
                    "display": "row",
                    "sub_fields": [
                        {
                            "key": "field_559ecaf1de312",
                            "label": "Overlay",
                            "name": "overlay",
                            "type": "radio",
                            "instructions": "",
                            "required": 0,
                            "conditional_logic": 0,
                            "wrapper": {
                                "width": "",
                                "class": "",
                                "id": ""
                            },
                            "choices": {
                                "no": "No",
                                "yes": "Yes"
                            },
                            "allow_null": 0,
                            "other_choice": 0,
                            "save_other_choice": 0,
                            "default_value": "no",
                            "layout": "horizontal",
                            "return_format": "value"
                        },
                        {
                            "key": "field_555a09a308147",
                            "label": "Image",
                            "name": "image",
                            "type": "image",
                            "instructions": "",
                            "required": 1,
                            "conditional_logic": 0,
                            "wrapper": {
                                "width": "",
                                "class": "",
                                "id": ""
                            },
                            "return_format": "url",
                            "preview_size": "large",
                            "library": "all",
                            "min_width": "",
                            "min_height": "",
                            "min_size": "",
                            "max_width": "",
                            "max_height": "",
                            "max_size": "",
                            "mime_types": ""
                        },
                        {
                            "key": "field_555a09c908148",
                            "label": "Content",
                            "name": "content",
                            "type": "textarea",
                            "instructions": "",
                            "required": 0,
                            "conditional_logic": 0,
                            "wrapper": {
                                "width": "",
                                "class": "",
                                "id": ""
                            },
                            "default_value": "",
                            "new_lines": "br",
                            "maxlength": "",
                            "placeholder": "",
                            "rows": "",
                            "readonly": 0,
                            "disabled": 0
                        },
                        {
                            "key": "field_555a09f408149",
                            "label": "Button Link",
                            "name": "button_link",
                            "type": "url",
                            "instructions": "",
                            "required": 0,
                            "conditional_logic": 0,
                            "wrapper": {
                                "width": "",
                                "class": "",
                                "id": ""
                            },
                            "default_value": "",
                            "placeholder": ""
                        },
                        {
                            "key": "field_555a0a050814a",
                            "label": "Button Text",
                            "name": "button_text",
                            "type": "text",
                            "instructions": "",
                            "required": 0,
                            "conditional_logic": 0,
                            "wrapper": {
                                "width": "",
                                "class": "",
                                "id": ""
                            },
                            "default_value": "Learn More",
                            "maxlength": 30,
                            "placeholder": "",
                            "prepend": "",
                            "append": "",
                            "readonly": 0,
                            "disabled": 0
                        }
                    ],
                    "min": "",
                    "max": ""
                },
                "5ac6794c17f20": {
                    "key": "5ac6794c17f20",
                    "name": "columns_two_thirds",
                    "label": "Columns Two Thirds",
                    "display": "block",
                    "sub_fields": [
                        {
                            "key": "field_5ac7924e33217",
                            "label": "Layout Options",
                            "name": "",
                            "type": "tab",
                            "instructions": "",
                            "required": 0,
                            "conditional_logic": 0,
                            "wrapper": {
                                "width": "",
                                "class": "",
                                "id": ""
                            },
                            "placement": "top",
                            "endpoint": 0
                        },
                        {
                            "key": "field_5ac7b560c9e6c",
                            "label": "Background",
                            "name": "background",
                            "type": "select",
                            "instructions": "Choose Background Color",
                            "required": 0,
                            "conditional_logic": 0,
                            "wrapper": {
                                "width": "",
                                "class": "",
                                "id": ""
                            },
                            "choices": {
                                "white": "White",
                                "light-gray": "Light Gray",
                                "dark-blue": "Dark Blue",
                                "light-blue": "Light Blue",
                                "green": "Green",
                                "yellow": "Yellow"
                            },
                            "default_value": [],
                            "allow_null": 0,
                            "multiple": 0,
                            "ui": 0,
                            "ajax": 0,
                            "return_format": "value",
                            "placeholder": ""
                        },
                        {
                            "key": "field_5ac679d617f23",
                            "label": "One Third Column Position",
                            "name": "one_third_column_position",
                            "type": "select",
                            "instructions": "Switch Layout Left or Right",
                            "required": 0,
                            "conditional_logic": 0,
                            "wrapper": {
                                "width": "",
                                "class": "",
                                "id": ""
                            },
                            "choices": {
                                "left": "Left",
                                "right": "Right"
                            },
                            "default_value": [],
                            "allow_null": 0,
                            "multiple": 0,
                            "ui": 0,
                            "ajax": 0,
                            "return_format": "value",
                            "placeholder": ""
                        },
                        {
                            "key": "field_5ac67abf7a3e7",
                            "label": "One Third Block",
                            "name": "",
                            "type": "tab",
                            "instructions": "",
                            "required": 0,
                            "conditional_logic": 0,
                            "wrapper": {
                                "width": "",
                                "class": "",
                                "id": ""
                            },
                            "placement": "top",
                            "endpoint": 0
                        },
                        {
                            "key": "field_5ac7b541c9e68",
                            "label": "One Third Content",
                            "name": "one_third_content",
                            "type": "wysiwyg",
                            "instructions": "",
                            "required": 0,
                            "conditional_logic": 0,
                            "wrapper": {
                                "width": "",
                                "class": "",
                                "id": ""
                            },
                            "default_value": "",
                            "tabs": "all",
                            "toolbar": "full",
                            "media_upload": 1,
                            "delay": 0
                        },
                        {
                            "key": "field_5ac7b598c9e6e",
                            "label": "Two Thirds Block",
                            "name": "",
                            "type": "tab",
                            "instructions": "",
                            "required": 0,
                            "conditional_logic": 0,
                            "wrapper": {
                                "width": "",
                                "class": "",
                                "id": ""
                            },
                            "placement": "top",
                            "endpoint": 0
                        },
                        {
                            "key": "field_5ac7b551c9e69",
                            "label": "Two Third Content",
                            "name": "two_thirds_content",
                            "type": "wysiwyg",
                            "instructions": "",
                            "required": 0,
                            "conditional_logic": 0,
                            "wrapper": {
                                "width": "",
                                "class": "",
                                "id": ""
                            },
                            "default_value": "",
                            "tabs": "all",
                            "toolbar": "full",
                            "media_upload": 1,
                            "delay": 0
                        }
                    ],
                    "min": "",
                    "max": ""
                },
                "5ac7b332c9e66": {
                    "key": "5ac7b332c9e66",
                    "name": "quote_blocks",
                    "label": "Quote Blocks",
                    "display": "block",
                    "sub_fields": [
                        {
                            "key": "field_5ac7b907c9e70",
                            "label": "Layout Options",
                            "name": "",
                            "type": "tab",
                            "instructions": "",
                            "required": 0,
                            "conditional_logic": 0,
                            "wrapper": {
                                "width": "",
                                "class": "",
                                "id": ""
                            },
                            "placement": "top",
                            "endpoint": 0
                        },
                        {
                            "key": "field_5ac67a0717f24",
                            "label": "Background",
                            "name": "background",
                            "type": "select",
                            "instructions": "Choose Background Color",
                            "required": 0,
                            "conditional_logic": 0,
                            "wrapper": {
                                "width": "",
                                "class": "",
                                "id": ""
                            },
                            "choices": {
                                "white": "White",
                                "light-gray": "Light Gray",
                                "dark-blue": "Dark Blue",
                                "light-blue": "Light Blue",
                                "green": "Green",
                                "yellow": "Yellow"
                            },
                            "default_value": [],
                            "allow_null": 0,
                            "multiple": 0,
                            "ui": 0,
                            "ajax": 0,
                            "return_format": "value",
                            "placeholder": ""
                        },
                        {
                            "key": "field_5ac7b59cc9e6f",
                            "label": "One Third",
                            "name": "",
                            "type": "tab",
                            "instructions": "",
                            "required": 0,
                            "conditional_logic": 0,
                            "wrapper": {
                                "width": "",
                                "class": "",
                                "id": ""
                            },
                            "placement": "top",
                            "endpoint": 0
                        },
                        {
                            "key": "field_5b16e147b022f",
                            "label": "Image",
                            "name": "quote_image",
                            "type": "image",
                            "instructions": "This image should be 231 pixels wide by 196 pixels high. Larger images will be cropped.",
                            "required": 0,
                            "conditional_logic": 0,
                            "wrapper": {
                                "width": "",
                                "class": "",
                                "id": ""
                            },
                            "return_format": "array",
                            "preview_size": "thumbnail",
                            "library": "all",
                            "min_width": "",
                            "min_height": "",
                            "min_size": "",
                            "max_width": "",
                            "max_height": "",
                            "max_size": "",
                            "mime_types": ""
                        },
                        {
                            "key": "field_5b16e176b0230",
                            "label": "Image Circle Border Color",
                            "name": "circle_image_border",
                            "type": "select",
                            "instructions": "Select Border Color",
                            "required": 0,
                            "conditional_logic": 0,
                            "wrapper": {
                                "width": "",
                                "class": "",
                                "id": ""
                            },
                            "choices": {
                                "border-green": "Green",
                                "border-blue": "Blue",
                                "border-dark-blue": "Dark Blue",
                                "border-yellow": "Yellow"
                            },
                            "default_value": [],
                            "allow_null": 0,
                            "multiple": 0,
                            "ui": 0,
                            "ajax": 0,
                            "return_format": "value",
                            "placeholder": ""
                        },
                        {
                            "key": "field_5b16e198b0231",
                            "label": "Quote Circle Border Color",
                            "name": "quote_border",
                            "type": "select",
                            "instructions": "Select Border Color",
                            "required": 0,
                            "conditional_logic": 0,
                            "wrapper": {
                                "width": "",
                                "class": "",
                                "id": ""
                            },
                            "choices": {
                                "border-green": "Green",
                                "border-blue": "Blue",
                                "border-dark-blue": "Dark Blue",
                                "border-yellow": "Yellow"
                            },
                            "default_value": [],
                            "allow_null": 0,
                            "multiple": 0,
                            "ui": 0,
                            "ajax": 0,
                            "return_format": "value",
                            "placeholder": ""
                        },
                        {
                            "key": "field_5ac67ad07a3e8",
                            "label": "Two Thirds",
                            "name": "",
                            "type": "tab",
                            "instructions": "",
                            "required": 0,
                            "conditional_logic": 0,
                            "wrapper": {
                                "width": "",
                                "class": "",
                                "id": ""
                            },
                            "placement": "top",
                            "endpoint": 0
                        },
                        {
                            "key": "field_5ac6796d17f21",
                            "label": "Quote",
                            "name": "two_thirds_content",
                            "type": "wysiwyg",
                            "instructions": "",
                            "required": 0,
                            "conditional_logic": 0,
                            "wrapper": {
                                "width": "",
                                "class": "",
                                "id": ""
                            },
                            "default_value": "",
                            "tabs": "all",
                            "toolbar": "full",
                            "media_upload": 1,
                            "delay": 0
                        },
                        {
                            "key": "field_5b16f0068491f",
                            "label": "Name",
                            "name": "quote_name",
                            "type": "text",
                            "instructions": "",
                            "required": 0,
                            "conditional_logic": 0,
                            "wrapper": {
                                "width": "",
                                "class": "",
                                "id": ""
                            },
                            "default_value": "",
                            "placeholder": "",
                            "prepend": "",
                            "append": "",
                            "maxlength": ""
                        },
                        {
                            "key": "field_5b16f00e84920",
                            "label": "Title",
                            "name": "quote_title",
                            "type": "text",
                            "instructions": "",
                            "required": 0,
                            "conditional_logic": 0,
                            "wrapper": {
                                "width": "",
                                "class": "",
                                "id": ""
                            },
                            "default_value": "",
                            "placeholder": "",
                            "prepend": "",
                            "append": "",
                            "maxlength": ""
                        }
                    ],
                    "min": "",
                    "max": ""
                },
                "5ac7c4d21e44c": {
                    "key": "5ac7c4d21e44c",
                    "name": "button_block",
                    "label": "Button Block",
                    "display": "block",
                    "sub_fields": [
                        {
                            "key": "field_5ae38c46c211d",
                            "label": "Layout Options",
                            "name": "",
                            "type": "tab",
                            "instructions": "",
                            "required": 0,
                            "conditional_logic": 0,
                            "wrapper": {
                                "width": "",
                                "class": "",
                                "id": ""
                            },
                            "placement": "top",
                            "endpoint": 0
                        },
                        {
                            "key": "field_5ac905bd4f6bd",
                            "label": "Background",
                            "name": "background",
                            "type": "select",
                            "instructions": "Choose Background Color",
                            "required": 0,
                            "conditional_logic": 0,
                            "wrapper": {
                                "width": "",
                                "class": "",
                                "id": ""
                            },
                            "choices": {
                                "white": "White",
                                "light-gray": "Light Gray",
                                "dark-blue": "Dark Blue",
                                "light-blue": "Light Blue",
                                "green": "Green",
                                "yellow": "Yellow"
                            },
                            "default_value": [],
                            "allow_null": 0,
                            "multiple": 0,
                            "ui": 0,
                            "ajax": 0,
                            "return_format": "value",
                            "placeholder": ""
                        },
                        {
                            "key": "field_5aea0aaa91b6a",
                            "label": "Layout Block",
                            "name": "",
                            "type": "tab",
                            "instructions": "",
                            "required": 0,
                            "conditional_logic": 0,
                            "wrapper": {
                                "width": "",
                                "class": "",
                                "id": ""
                            },
                            "placement": "top",
                            "endpoint": 0
                        },
                        {
                            "key": "field_5ac7c4ef1e44d",
                            "label": "Heading",
                            "name": "button_block_title",
                            "type": "text",
                            "instructions": "",
                            "required": 0,
                            "conditional_logic": 0,
                            "wrapper": {
                                "width": "",
                                "class": "",
                                "id": ""
                            },
                            "default_value": "",
                            "placeholder": "",
                            "prepend": "",
                            "append": "",
                            "maxlength": ""
                        },
                        {
                            "key": "field_5ac7c5be1e44e",
                            "label": "Link",
                            "name": "button_block_button_link",
                            "type": "link",
                            "instructions": "",
                            "required": 0,
                            "conditional_logic": 0,
                            "wrapper": {
                                "width": "",
                                "class": "",
                                "id": ""
                            },
                            "return_format": "array"
                        }
                    ],
                    "min": "",
                    "max": ""
                },
                "5ac9404b14fb7": {
                    "key": "5ac9404b14fb7",
                    "name": "accordion_block",
                    "label": "Accordion Block",
                    "display": "block",
                    "sub_fields": [
                        {
                            "key": "field_5aca579a3209b",
                            "label": "Accordion Row",
                            "name": "accordion_row",
                            "type": "repeater",
                            "instructions": "",
                            "required": 1,
                            "conditional_logic": 0,
                            "wrapper": {
                                "width": "",
                                "class": "",
                                "id": ""
                            },
                            "collapsed": "",
                            "min": 0,
                            "max": 0,
                            "layout": "row",
                            "button_label": "Add Accordion",
                            "sub_fields": [
                                {
                                    "key": "field_5aca57ce3209c",
                                    "label": "Accord Title",
                                    "name": "accord_title",
                                    "type": "text",
                                    "instructions": "",
                                    "required": 1,
                                    "conditional_logic": 0,
                                    "wrapper": {
                                        "width": "",
                                        "class": "",
                                        "id": ""
                                    },
                                    "default_value": "",
                                    "placeholder": "",
                                    "prepend": "",
                                    "append": "",
                                    "maxlength": ""
                                },
                                {
                                    "key": "field_5aca57dd3209d",
                                    "label": "Accord Content",
                                    "name": "accord_content",
                                    "type": "wysiwyg",
                                    "instructions": "",
                                    "required": 1,
                                    "conditional_logic": 0,
                                    "wrapper": {
                                        "width": "",
                                        "class": "",
                                        "id": ""
                                    },
                                    "default_value": "",
                                    "tabs": "all",
                                    "toolbar": "full",
                                    "media_upload": 1,
                                    "delay": 0
                                }
                            ]
                        }
                    ],
                    "min": "",
                    "max": ""
                },
                "5aca6d5da729b": {
                    "key": "5aca6d5da729b",
                    "name": "table_block",
                    "label": "Table Block",
                    "display": "block",
                    "sub_fields": [],
                    "min": "",
                    "max": ""
                },
                "5acb6c2aebb93": {
                    "key": "5acb6c2aebb93",
                    "name": "tab_block",
                    "label": "Tab Block",
                    "display": "block",
                    "sub_fields": [
                        {
                            "key": "field_5ae8d1645f8e2",
                            "label": "Tab Content",
                            "name": "tabs",
                            "type": "repeater",
                            "instructions": "",
                            "required": 0,
                            "conditional_logic": 0,
                            "wrapper": {
                                "width": "",
                                "class": "",
                                "id": ""
                            },
                            "collapsed": "",
                            "min": 0,
                            "max": 0,
                            "layout": "row",
                            "button_label": "",
                            "sub_fields": [
                                {
                                    "key": "field_5ae9d4fbe2a8d",
                                    "label": "Tab",
                                    "name": "tab_label",
                                    "type": "text",
                                    "instructions": "",
                                    "required": 0,
                                    "conditional_logic": 0,
                                    "wrapper": {
                                        "width": "",
                                        "class": "",
                                        "id": ""
                                    },
                                    "default_value": "",
                                    "placeholder": "",
                                    "prepend": "",
                                    "append": "",
                                    "maxlength": ""
                                },
                                {
                                    "key": "field_5ae9badb5ace2",
                                    "label": "Content",
                                    "name": "tab_content",
                                    "type": "wysiwyg",
                                    "instructions": "",
                                    "required": 0,
                                    "conditional_logic": 0,
                                    "wrapper": {
                                        "width": "",
                                        "class": "",
                                        "id": ""
                                    },
                                    "default_value": "",
                                    "tabs": "all",
                                    "toolbar": "full",
                                    "media_upload": 1,
                                    "delay": 0
                                }
                            ]
                        }
                    ],
                    "min": "",
                    "max": ""
                },
                "5b019a16ffcce": {
                    "key": "5b019a16ffcce",
                    "name": "carousel_block",
                    "label": "Carousel Block",
                    "display": "block",
                    "sub_fields": [
                        {
                            "key": "field_5b019a35ffccf",
                            "label": "Carousel Slides",
                            "name": "carousel_slides",
                            "type": "repeater",
                            "instructions": "",
                            "required": 0,
                            "conditional_logic": 0,
                            "wrapper": {
                                "width": "",
                                "class": "",
                                "id": ""
                            },
                            "collapsed": "",
                            "min": 0,
                            "max": 0,
                            "layout": "table",
                            "button_label": "",
                            "sub_fields": [
                                {
                                    "key": "field_5b019a54ffcd0",
                                    "label": "Carousel Image",
                                    "name": "carousel_image",
                                    "type": "image",
                                    "instructions": "This image should be 900 pixels wide by 900 pixels high. Larger images will be cropped.",
                                    "required": 0,
                                    "conditional_logic": 0,
                                    "wrapper": {
                                        "width": "",
                                        "class": "",
                                        "id": ""
                                    },
                                    "return_format": "array",
                                    "preview_size": "thumbnail",
                                    "library": "all",
                                    "min_width": "",
                                    "min_height": "",
                                    "min_size": "",
                                    "max_width": "",
                                    "max_height": "",
                                    "max_size": "",
                                    "mime_types": ""
                                }
                            ]
                        }
                    ],
                    "min": "",
                    "max": ""
                },
                "5b17dea5b41d5": {
                    "key": "5b17dea5b41d5",
                    "name": "video_block",
                    "label": "Video Block",
                    "display": "block",
                    "sub_fields": [
                        {
                            "key": "field_5b17deadb41d6",
                            "label": "Image",
                            "name": "video_block_media",
                            "type": "image",
                            "instructions": "This image should be 580 pixels wide by 400 pixels high. Larger images will be cropped.",
                            "required": 0,
                            "conditional_logic": 0,
                            "wrapper": {
                                "width": "",
                                "class": "",
                                "id": ""
                            },
                            "return_format": "array",
                            "preview_size": "thumbnail",
                            "library": "all",
                            "min_width": "",
                            "min_height": "",
                            "min_size": "",
                            "max_width": "",
                            "max_height": "",
                            "max_size": "",
                            "mime_types": ""
                        },
                        {
                            "key": "field_5b17decdb41d7",
                            "label": "Heading",
                            "name": "video_block_title",
                            "type": "text",
                            "instructions": "",
                            "required": 0,
                            "conditional_logic": 0,
                            "wrapper": {
                                "width": "",
                                "class": "",
                                "id": ""
                            },
                            "default_value": "",
                            "placeholder": "",
                            "prepend": "",
                            "append": "",
                            "maxlength": ""
                        },
                        {
                            "key": "field_5b17dee9b41d8",
                            "label": "Text",
                            "name": "video_block_body",
                            "type": "text",
                            "instructions": "",
                            "required": 0,
                            "conditional_logic": 0,
                            "wrapper": {
                                "width": "",
                                "class": "",
                                "id": ""
                            },
                            "default_value": "",
                            "placeholder": "",
                            "prepend": "",
                            "append": "",
                            "maxlength": ""
                        },
                        {
                            "key": "field_5b17df3bb41d9",
                            "label": "Button Link",
                            "name": "video_block_button_link",
                            "type": "link",
                            "instructions": "",
                            "required": 0,
                            "conditional_logic": 0,
                            "wrapper": {
                                "width": "",
                                "class": "",
                                "id": ""
                            },
                            "return_format": "array"
                        },
                        {
                            "key": "field_5b17df66b41da",
                            "label": "Video Link",
                            "name": "video_block_link",
                            "type": "link",
                            "instructions": "",
                            "required": 0,
                            "conditional_logic": 0,
                            "wrapper": {
                                "width": "",
                                "class": "",
                                "id": ""
                            },
                            "return_format": "url"
                        }
                    ],
                    "min": "",
                    "max": ""
                },
                "5b17fa590dcf6": {
                    "key": "5b17fa590dcf6",
                    "name": "rss_feed_block",
                    "label": "Rss Feed",
                    "display": "block",
                    "sub_fields": [
                        {
                            "key": "field_5b17fa680dcf7",
                            "label": "Text",
                            "name": "content",
                            "type": "text",
                            "instructions": "",
                            "required": 0,
                            "conditional_logic": 0,
                            "wrapper": {
                                "width": "",
                                "class": "",
                                "id": ""
                            },
                            "default_value": "",
                            "placeholder": "",
                            "prepend": "",
                            "append": "",
                            "maxlength": ""
                        }
                    ],
                    "min": "",
                    "max": ""
                }
            },
            "button_label": "Add Block",
            "min": 1,
            "max": 11
        }
    ],
    "location": [
        [
            {
                "param": "page_template",
                "operator": "==",
                "value": "template-advanced.php"
            }
        ]
    ],
    "menu_order": 0,
    "position": "normal",
    "style": "default",
    "label_placement": "top",
    "instruction_placement": "label",
    "hide_on_screen": [
        "the_content",
        "excerpt",
        "custom_fields",
        "discussion",
        "comments",
        "slug",
        "format",
        "categories",
        "tags",
        "send-trackbacks"
    ],
    "active": 1,
    "description": "",
    "modified": 1528305792
}