<?xml version="1.0" encoding="UTF-8"?>
<svg width="27px" height="27px" viewBox="0 0 27 27" version="1.1" xmlns="http://www.w3.org/2000/svg" xmlns:xlink="http://www.w3.org/1999/xlink">
    <!-- Generator: Sketch 52.5 (67469) - http://www.bohemiancoding.com/sketch -->
    <title>Group 8</title>
    <desc>Created with Sketch.</desc>
    <g id="Page-1" stroke="none" stroke-width="1" fill="none" fill-rule="evenodd">
        <g id="Mobile-2" transform="translate(-214.000000, -103.000000)">
            <g id="Group-7" transform="translate(214.000000, 103.000000)">
                <g id="Group-2">
                    <g id="Group">
                        <g id="Group-8">
                            <circle id="Oval-Copy-23" fill="#FFFFFF" cx="13.5" cy="13.5" r="13.5"></circle>
                            <path d="M13.3535534,5.85355339 L13.3535534,20.8535534" id="Line-3" stroke="#25ADDC" stroke-width="3" stroke-linecap="square" transform="translate(13.853553, 13.353553) rotate(-315.000000) translate(-13.853553, -13.353553) "></path>
                            <path d="M20.6464466,12.8535534 L5.64644661,12.8535534" id="Line-3" stroke="#25ADDC" stroke-width="3" stroke-linecap="square" transform="translate(13.146447, 13.353553) rotate(-315.000000) translate(-13.146447, -13.353553) "></path>
                        </g>
                    </g>
                </g>
            </g>
        </g>
    </g>
</svg>